{
    "m_SGVersion": 2,
    "m_Type": "UnityEditor.ShaderGraph.GraphData",
    "m_ObjectId": "433b5a8c4e3c46be953cba7c7ab55fad",
    "m_Properties": [
        {
            "m_Id": "ad9b0d4e6cc8465d858c2908c3c46bdd"
        },
        {
            "m_Id": "afad58eaac5946948d13d784d72b0821"
        },
        {
            "m_Id": "a986718c5c86400e8e42d9c22a8346b2"
        },
        {
            "m_Id": "b5fa6256b025484a92c305b0377b9617"
        }
    ],
    "m_Keywords": [],
    "m_Nodes": [
        {
            "m_Id": "daa33396f3954bd384a7fe30101371ac"
        },
        {
            "m_Id": "3c95df639d044904bb7c82bf2a39a181"
        },
        {
            "m_Id": "85627f6de0c9485ab673cc269dec12cb"
        },
        {
            "m_Id": "3312c0222bd34c6ea2ac39216c0fc9f9"
        },
        {
            "m_Id": "e80770faf36b44628ee5d0cd8f565df5"
        },
        {
            "m_Id": "29a1fd100a6c425996d94bd97c8b8dbd"
        },
        {
            "m_Id": "a5582671e235477895aaba0b5f3c623d"
        },
        {
            "m_Id": "6b07f801e4d546089997b201aa52a976"
        },
        {
            "m_Id": "26df213faaf048f899ee716d26f45b15"
        },
        {
            "m_Id": "b71df6e4179f41f8897cac4f10e4c61c"
        },
        {
            "m_Id": "5558bc05b70b44cf9fa083f1bcf408d8"
        },
        {
            "m_Id": "aaae42fda2ef400189d07adb5ec19583"
        },
        {
            "m_Id": "873bd5ab9b4c47c38c97b45decde9096"
        },
        {
            "m_Id": "b249f570571a42b49701a03d6a08dd10"
        },
        {
            "m_Id": "7a66f47e23ef4b07bb46d04ac56530b5"
        },
        {
            "m_Id": "a9bc5efd3fab45d098c3a115671a15fa"
        },
        {
            "m_Id": "d83a48186dc34a92b0d04f9a9103c731"
        },
        {
            "m_Id": "26a23619cda5489aae31d304ea567733"
        },
        {
            "m_Id": "47de7a42097d4e5eb5f8634b02db8fb1"
        },
        {
            "m_Id": "0f764f142bf14bc08dd2211a3e7bbd08"
        },
        {
            "m_Id": "96c742abf1094ef391da0b6c52012d70"
        },
        {
            "m_Id": "2a64d1afe47a4e61add2ae39cb7cf119"
        },
        {
            "m_Id": "d8fa51be4122436090b3ed89a240ee25"
        },
        {
            "m_Id": "263f3f59554b46bf88b5835dbf038459"
        }
    ],
    "m_GroupDatas": [],
    "m_StickyNoteDatas": [],
    "m_Edges": [
        {
            "m_OutputSlot": {
                "m_Node": {
                    "m_Id": "0f764f142bf14bc08dd2211a3e7bbd08"
                },
                "m_SlotId": 0
            },
            "m_InputSlot": {
                "m_Node": {
                    "m_Id": "47de7a42097d4e5eb5f8634b02db8fb1"
                },
                "m_SlotId": 1
            }
        },
        {
            "m_OutputSlot": {
                "m_Node": {
                    "m_Id": "263f3f59554b46bf88b5835dbf038459"
                },
                "m_SlotId": 0
            },
            "m_InputSlot": {
                "m_Node": {
                    "m_Id": "2a64d1afe47a4e61add2ae39cb7cf119"
                },
                "m_SlotId": 1
            }
        },
        {
            "m_OutputSlot": {
                "m_Node": {
                    "m_Id": "26a23619cda5489aae31d304ea567733"
                },
                "m_SlotId": 0
            },
            "m_InputSlot": {
                "m_Node": {
                    "m_Id": "d83a48186dc34a92b0d04f9a9103c731"
                },
                "m_SlotId": 1
            }
        },
        {
            "m_OutputSlot": {
                "m_Node": {
                    "m_Id": "2a64d1afe47a4e61add2ae39cb7cf119"
                },
                "m_SlotId": 3
            },
            "m_InputSlot": {
                "m_Node": {
                    "m_Id": "3312c0222bd34c6ea2ac39216c0fc9f9"
                },
                "m_SlotId": 0
            }
        },
        {
            "m_OutputSlot": {
                "m_Node": {
                    "m_Id": "47de7a42097d4e5eb5f8634b02db8fb1"
                },
                "m_SlotId": 2
            },
            "m_InputSlot": {
                "m_Node": {
                    "m_Id": "96c742abf1094ef391da0b6c52012d70"
                },
                "m_SlotId": 0
            }
        },
        {
            "m_OutputSlot": {
                "m_Node": {
                    "m_Id": "5558bc05b70b44cf9fa083f1bcf408d8"
                },
                "m_SlotId": 2
            },
            "m_InputSlot": {
                "m_Node": {
                    "m_Id": "daa33396f3954bd384a7fe30101371ac"
                },
                "m_SlotId": 0
            }
        },
        {
            "m_OutputSlot": {
                "m_Node": {
                    "m_Id": "7a66f47e23ef4b07bb46d04ac56530b5"
                },
                "m_SlotId": 0
            },
            "m_InputSlot": {
                "m_Node": {
                    "m_Id": "a9bc5efd3fab45d098c3a115671a15fa"
                },
                "m_SlotId": 0
            }
        },
        {
            "m_OutputSlot": {
                "m_Node": {
                    "m_Id": "873bd5ab9b4c47c38c97b45decde9096"
                },
                "m_SlotId": 0
            },
            "m_InputSlot": {
                "m_Node": {
                    "m_Id": "b249f570571a42b49701a03d6a08dd10"
                },
                "m_SlotId": 0
            }
        },
        {
            "m_OutputSlot": {
                "m_Node": {
                    "m_Id": "96c742abf1094ef391da0b6c52012d70"
                },
                "m_SlotId": 1
            },
            "m_InputSlot": {
                "m_Node": {
                    "m_Id": "2a64d1afe47a4e61add2ae39cb7cf119"
                },
                "m_SlotId": 2
            }
        },
        {
            "m_OutputSlot": {
                "m_Node": {
                    "m_Id": "a9bc5efd3fab45d098c3a115671a15fa"
                },
                "m_SlotId": 2
            },
            "m_InputSlot": {
                "m_Node": {
                    "m_Id": "d83a48186dc34a92b0d04f9a9103c731"
                },
                "m_SlotId": 0
            }
        },
        {
            "m_OutputSlot": {
                "m_Node": {
                    "m_Id": "aaae42fda2ef400189d07adb5ec19583"
                },
                "m_SlotId": 0
            },
            "m_InputSlot": {
                "m_Node": {
                    "m_Id": "5558bc05b70b44cf9fa083f1bcf408d8"
                },
                "m_SlotId": 1
            }
        },
        {
            "m_OutputSlot": {
                "m_Node": {
                    "m_Id": "aaae42fda2ef400189d07adb5ec19583"
                },
                "m_SlotId": 0
            },
            "m_InputSlot": {
                "m_Node": {
                    "m_Id": "b249f570571a42b49701a03d6a08dd10"
                },
                "m_SlotId": 1
            }
        },
        {
            "m_OutputSlot": {
                "m_Node": {
                    "m_Id": "b249f570571a42b49701a03d6a08dd10"
                },
                "m_SlotId": 2
            },
            "m_InputSlot": {
                "m_Node": {
                    "m_Id": "3c95df639d044904bb7c82bf2a39a181"
                },
                "m_SlotId": 0
            }
        },
        {
            "m_OutputSlot": {
                "m_Node": {
                    "m_Id": "b71df6e4179f41f8897cac4f10e4c61c"
                },
                "m_SlotId": 0
            },
            "m_InputSlot": {
                "m_Node": {
                    "m_Id": "5558bc05b70b44cf9fa083f1bcf408d8"
                },
                "m_SlotId": 0
            }
        },
        {
            "m_OutputSlot": {
                "m_Node": {
                    "m_Id": "d83a48186dc34a92b0d04f9a9103c731"
                },
                "m_SlotId": 2
            },
            "m_InputSlot": {
                "m_Node": {
                    "m_Id": "47de7a42097d4e5eb5f8634b02db8fb1"
                },
                "m_SlotId": 0
            }
        },
        {
            "m_OutputSlot": {
                "m_Node": {
                    "m_Id": "d8fa51be4122436090b3ed89a240ee25"
                },
                "m_SlotId": 0
            },
            "m_InputSlot": {
                "m_Node": {
                    "m_Id": "2a64d1afe47a4e61add2ae39cb7cf119"
                },
                "m_SlotId": 0
            }
        }
    ],
    "m_VertexContext": {
        "m_Position": {
            "x": 431.9999084472656,
            "y": -27.999996185302736
        },
        "m_Blocks": [
            {
                "m_Id": "daa33396f3954bd384a7fe30101371ac"
            },
            {
                "m_Id": "3c95df639d044904bb7c82bf2a39a181"
            },
            {
                "m_Id": "85627f6de0c9485ab673cc269dec12cb"
            }
        ]
    },
    "m_FragmentContext": {
        "m_Position": {
            "x": 432.0,
            "y": 194.39999389648438
        },
        "m_Blocks": [
            {
                "m_Id": "3312c0222bd34c6ea2ac39216c0fc9f9"
            },
            {
                "m_Id": "e80770faf36b44628ee5d0cd8f565df5"
            },
            {
                "m_Id": "29a1fd100a6c425996d94bd97c8b8dbd"
            },
            {
                "m_Id": "a5582671e235477895aaba0b5f3c623d"
            },
            {
                "m_Id": "6b07f801e4d546089997b201aa52a976"
            },
            {
                "m_Id": "26df213faaf048f899ee716d26f45b15"
            }
        ]
    },
    "m_PreviewData": {
        "serializedMesh": {
            "m_SerializedMesh": "{\"mesh\":{\"instanceID\":0}}",
            "m_Guid": ""
        }
    },
    "m_Path": "Shader Graphs",
    "m_ConcretePrecision": 0,
    "m_PreviewMode": 2,
    "m_OutputNode": {
        "m_Id": ""
    },
    "m_ActiveTargets": [
        {
            "m_Id": "6ed92ee056e74462beb050feed3583f5"
        }
    ]
}

{
    "m_SGVersion": 0,
    "m_Type": "UnityEditor.ShaderGraph.DynamicVectorMaterialSlot",
    "m_ObjectId": "013ddd9c131741ba802dedfc75badb9b",
    "m_Id": 0,
    "m_DisplayName": "A",
    "m_SlotType": 0,
    "m_Hidden": false,
    "m_ShaderOutputName": "A",
    "m_StageCapability": 3,
    "m_Value": {
        "x": 0.0,
        "y": 0.0,
        "z": 0.0,
        "w": 0.0
    },
    "m_DefaultValue": {
        "x": 0.0,
        "y": 0.0,
        "z": 0.0,
        "w": 0.0
    }
}

{
    "m_SGVersion": 0,
    "m_Type": "UnityEditor.ShaderGraph.Vector4MaterialSlot",
    "m_ObjectId": "014b4ec6c980442a8918712667a7f2fb",
    "m_Id": 0,
    "m_DisplayName": "Border",
    "m_SlotType": 1,
    "m_Hidden": false,
    "m_ShaderOutputName": "Out",
    "m_StageCapability": 3,
    "m_Value": {
        "x": 0.0,
        "y": 0.0,
        "z": 0.0,
        "w": 0.0
    },
    "m_DefaultValue": {
        "x": 0.0,
        "y": 0.0,
        "z": 0.0,
        "w": 0.0
    },
    "m_Labels": []
}

{
    "m_SGVersion": 0,
    "m_Type": "UnityEditor.ShaderGraph.PropertyNode",
    "m_ObjectId": "0f764f142bf14bc08dd2211a3e7bbd08",
    "m_Group": {
        "m_Id": ""
    },
    "m_Name": "Property",
    "m_DrawState": {
        "m_Expanded": true,
        "m_Position": {
            "serializedVersion": "2",
            "x": -60.000030517578128,
            "y": -489.5999755859375,
            "width": 131.19998168945313,
            "height": 33.60000228881836
        }
    },
    "m_Slots": [
        {
            "m_Id": "bea2d474d62144b79ba4fd81cb4bf100"
        }
    ],
    "synonyms": [],
    "m_Precision": 0,
    "m_PreviewExpanded": true,
    "m_PreviewMode": 0,
    "m_CustomColors": {
        "m_SerializableColors": []
    },
    "m_Property": {
        "m_Id": "afad58eaac5946948d13d784d72b0821"
    }
}

{
    "m_SGVersion": 0,
    "m_Type": "UnityEditor.ShaderGraph.Vector4MaterialSlot",
    "m_ObjectId": "145fb2d777474ef9a280431919b8c025",
    "m_Id": 0,
    "m_DisplayName": "Out",
    "m_SlotType": 1,
    "m_Hidden": false,
    "m_ShaderOutputName": "Out",
    "m_StageCapability": 3,
    "m_Value": {
        "x": 0.0,
        "y": 0.0,
        "z": 0.0,
        "w": 0.0
    },
    "m_DefaultValue": {
        "x": 0.0,
        "y": 0.0,
        "z": 0.0,
        "w": 0.0
    },
    "m_Labels": []
}

{
    "m_SGVersion": 0,
    "m_Type": "UnityEditor.ShaderGraph.DynamicVectorMaterialSlot",
    "m_ObjectId": "16a91c8b264742e99a26cb05e607bf48",
    "m_Id": 0,
    "m_DisplayName": "In",
    "m_SlotType": 0,
    "m_Hidden": false,
    "m_ShaderOutputName": "In",
    "m_StageCapability": 3,
    "m_Value": {
        "x": 0.0,
        "y": 0.0,
        "z": 0.0,
        "w": 0.0
    },
    "m_DefaultValue": {
        "x": 0.0,
        "y": 0.0,
        "z": 0.0,
        "w": 0.0
    }
}

{
    "m_SGVersion": 0,
    "m_Type": "UnityEditor.ShaderGraph.Vector1MaterialSlot",
    "m_ObjectId": "1a0033b083e7422d840366be4a58a254",
    "m_Id": 1,
    "m_DisplayName": "R",
    "m_SlotType": 1,
    "m_Hidden": false,
    "m_ShaderOutputName": "R",
    "m_StageCapability": 3,
    "m_Value": 0.0,
    "m_DefaultValue": 0.0,
    "m_Labels": []
}

{
    "m_SGVersion": 0,
    "m_Type": "UnityEditor.ShaderGraph.PropertyNode",
    "m_ObjectId": "263f3f59554b46bf88b5835dbf038459",
    "m_Group": {
        "m_Id": ""
    },
    "m_Name": "Property",
    "m_DrawState": {
        "m_Expanded": true,
        "m_Position": {
            "serializedVersion": "2",
            "x": 260.7999267578125,
            "y": -811.199951171875,
            "width": 103.99999237060547,
            "height": 33.600032806396487
        }
    },
    "m_Slots": [
        {
            "m_Id": "60ae22e3b24b4cc2a0fe3a0b5ecb2efa"
        }
    ],
    "synonyms": [],
    "m_Precision": 0,
    "m_PreviewExpanded": true,
    "m_PreviewMode": 0,
    "m_CustomColors": {
        "m_SerializableColors": []
    },
    "m_Property": {
        "m_Id": "b5fa6256b025484a92c305b0377b9617"
    }
}

{
    "m_SGVersion": 0,
    "m_Type": "UnityEditor.ShaderGraph.PropertyNode",
    "m_ObjectId": "26a23619cda5489aae31d304ea567733",
    "m_Group": {
        "m_Id": ""
    },
    "m_Name": "Property",
    "m_DrawState": {
        "m_Expanded": true,
        "m_Position": {
            "serializedVersion": "2",
            "x": -240.0000457763672,
            "y": -489.5999755859375,
            "width": 103.99999237060547,
            "height": 33.60000228881836
        }
    },
    "m_Slots": [
        {
            "m_Id": "b6950a2a33ca4eeaa842892088d489f3"
        }
    ],
    "synonyms": [],
    "m_Precision": 0,
    "m_PreviewExpanded": true,
    "m_PreviewMode": 0,
    "m_CustomColors": {
        "m_SerializableColors": []
    },
    "m_Property": {
        "m_Id": "ad9b0d4e6cc8465d858c2908c3c46bdd"
    }
}

{
    "m_SGVersion": 0,
    "m_Type": "UnityEditor.ShaderGraph.BlockNode",
    "m_ObjectId": "26df213faaf048f899ee716d26f45b15",
    "m_Group": {
        "m_Id": ""
    },
    "m_Name": "SurfaceDescription.Occlusion",
    "m_DrawState": {
        "m_Expanded": true,
        "m_Position": {
            "serializedVersion": "2",
            "x": 0.0,
            "y": 0.0,
            "width": 0.0,
            "height": 0.0
        }
    },
    "m_Slots": [
        {
            "m_Id": "76b997fc88404dbcbcf13bbe699f9d54"
        }
    ],
    "synonyms": [],
    "m_Precision": 0,
    "m_PreviewExpanded": true,
    "m_PreviewMode": 0,
    "m_CustomColors": {
        "m_SerializableColors": []
    },
    "m_SerializedDescriptor": "SurfaceDescription.Occlusion"
}

{
    "m_SGVersion": 0,
    "m_Type": "UnityEditor.ShaderGraph.BlockNode",
    "m_ObjectId": "29a1fd100a6c425996d94bd97c8b8dbd",
    "m_Group": {
        "m_Id": ""
    },
    "m_Name": "SurfaceDescription.Metallic",
    "m_DrawState": {
        "m_Expanded": true,
        "m_Position": {
            "serializedVersion": "2",
            "x": 0.0,
            "y": 0.0,
            "width": 0.0,
            "height": 0.0
        }
    },
    "m_Slots": [
        {
            "m_Id": "d2f6603bcfa64642a98e15073261e8e0"
        }
    ],
    "synonyms": [],
    "m_Precision": 0,
    "m_PreviewExpanded": true,
    "m_PreviewMode": 0,
    "m_CustomColors": {
        "m_SerializableColors": []
    },
    "m_SerializedDescriptor": "SurfaceDescription.Metallic"
}

{
    "m_SGVersion": 0,
    "m_Type": "UnityEditor.ShaderGraph.LerpNode",
    "m_ObjectId": "2a64d1afe47a4e61add2ae39cb7cf119",
    "m_Group": {
        "m_Id": ""
    },
    "m_Name": "Lerp",
    "m_DrawState": {
        "m_Expanded": true,
        "m_Position": {
            "serializedVersion": "2",
            "x": 522.3999633789063,
            "y": -699.199951171875,
            "width": 207.99998474121095,
            "height": 325.6000061035156
        }
    },
    "m_Slots": [
        {
            "m_Id": "013ddd9c131741ba802dedfc75badb9b"
        },
        {
            "m_Id": "cb9402d5f0ad45278b2de95517d7c75e"
        },
        {
            "m_Id": "ee556696339d4a19bcddcc5f8fe85b2e"
        },
        {
            "m_Id": "f4328d47923745ec9a58ef451ca73536"
        }
    ],
    "synonyms": [],
    "m_Precision": 0,
    "m_PreviewExpanded": true,
    "m_PreviewMode": 0,
    "m_CustomColors": {
        "m_SerializableColors": []
    }
}

{
    "m_SGVersion": 0,
    "m_Type": "UnityEditor.ShaderGraph.BlockNode",
    "m_ObjectId": "3312c0222bd34c6ea2ac39216c0fc9f9",
    "m_Group": {
        "m_Id": ""
    },
    "m_Name": "SurfaceDescription.BaseColor",
    "m_DrawState": {
        "m_Expanded": true,
        "m_Position": {
            "serializedVersion": "2",
            "x": 0.0,
            "y": 0.0,
            "width": 0.0,
            "height": 0.0
        }
    },
    "m_Slots": [
        {
            "m_Id": "711b625848ac4803a98460b86a1959ec"
        }
    ],
    "synonyms": [],
    "m_Precision": 0,
    "m_PreviewExpanded": true,
    "m_PreviewMode": 0,
    "m_CustomColors": {
        "m_SerializableColors": []
    },
    "m_SerializedDescriptor": "SurfaceDescription.BaseColor"
}

{
    "m_SGVersion": 0,
    "m_Type": "UnityEditor.ShaderGraph.Vector3MaterialSlot",
    "m_ObjectId": "353599a595414884820da075b4554fec",
    "m_Id": 0,
    "m_DisplayName": "Out",
    "m_SlotType": 1,
    "m_Hidden": false,
    "m_ShaderOutputName": "Out",
    "m_StageCapability": 3,
    "m_Value": {
        "x": 0.0,
        "y": 0.0,
        "z": 1.0
    },
    "m_DefaultValue": {
        "x": 0.0,
        "y": 0.0,
        "z": 0.0
    },
    "m_Labels": []
}

{
    "m_SGVersion": 0,
    "m_Type": "UnityEditor.ShaderGraph.DynamicVectorMaterialSlot",
    "m_ObjectId": "35495c7f450e42a383bbd578c4f9b47c",
    "m_Id": 0,
    "m_DisplayName": "In",
    "m_SlotType": 0,
    "m_Hidden": false,
    "m_ShaderOutputName": "In",
    "m_StageCapability": 3,
    "m_Value": {
        "x": 0.0,
        "y": 0.0,
        "z": 0.0,
        "w": 0.0
    },
    "m_DefaultValue": {
        "x": 0.0,
        "y": 0.0,
        "z": 0.0,
        "w": 0.0
    }
}

{
    "m_SGVersion": 0,
    "m_Type": "UnityEditor.ShaderGraph.BlockNode",
    "m_ObjectId": "3c95df639d044904bb7c82bf2a39a181",
    "m_Group": {
        "m_Id": ""
    },
    "m_Name": "VertexDescription.Normal",
    "m_DrawState": {
        "m_Expanded": true,
        "m_Position": {
            "serializedVersion": "2",
            "x": 0.0,
            "y": 0.0,
            "width": 0.0,
            "height": 0.0
        }
    },
    "m_Slots": [
        {
            "m_Id": "9efa8c79f4aa4cf58d31937906a67089"
        }
    ],
    "synonyms": [],
    "m_Precision": 0,
    "m_PreviewExpanded": true,
    "m_PreviewMode": 0,
    "m_CustomColors": {
        "m_SerializableColors": []
    },
    "m_SerializedDescriptor": "VertexDescription.Normal"
}

{
    "m_SGVersion": 0,
    "m_Type": "UnityEditor.ShaderGraph.AddNode",
    "m_ObjectId": "47de7a42097d4e5eb5f8634b02db8fb1",
    "m_Group": {
        "m_Id": ""
    },
    "m_Name": "Add",
    "m_DrawState": {
        "m_Expanded": true,
        "m_Position": {
            "serializedVersion": "2",
            "x": 71.199951171875,
            "y": -699.199951171875,
            "width": 125.5999984741211,
            "height": 117.60002899169922
        }
    },
    "m_Slots": [
        {
            "m_Id": "f83373046c484dbf8264032ff3feb329"
        },
        {
            "m_Id": "70c44eeab37b4d70b368a05f7e42ed78"
        },
        {
            "m_Id": "ee547febc27b4fe187bcf21db8d8df85"
        }
    ],
    "synonyms": [],
    "m_Precision": 0,
    "m_PreviewExpanded": false,
    "m_PreviewMode": 0,
    "m_CustomColors": {
        "m_SerializableColors": []
    }
}

{
    "m_SGVersion": 0,
    "m_Type": "UnityEditor.ShaderGraph.PositionMaterialSlot",
    "m_ObjectId": "4e0fe967791940b487aab862e10f9bdd",
    "m_Id": 0,
    "m_DisplayName": "Position",
    "m_SlotType": 0,
    "m_Hidden": false,
    "m_ShaderOutputName": "Position",
    "m_StageCapability": 1,
    "m_Value": {
        "x": 0.0,
        "y": 0.0,
        "z": 0.0
    },
    "m_DefaultValue": {
        "x": 0.0,
        "y": 0.0,
        "z": 0.0
    },
    "m_Labels": [],
    "m_Space": 0
}

{
    "m_SGVersion": 0,
    "m_Type": "UnityEditor.ShaderGraph.MultiplyNode",
    "m_ObjectId": "5558bc05b70b44cf9fa083f1bcf408d8",
    "m_Group": {
        "m_Id": ""
    },
    "m_Name": "Multiply",
    "m_DrawState": {
        "m_Expanded": true,
        "m_Position": {
            "serializedVersion": "2",
            "x": -188.00001525878907,
            "y": -248.8000030517578,
            "width": 208.0,
            "height": 301.6000061035156
        }
    },
    "m_Slots": [
        {
            "m_Id": "566d35f943414a22a11c0a55b659ccb8"
        },
        {
            "m_Id": "e33abadcfaee40669c6d21762fcfc4cb"
        },
        {
            "m_Id": "a45bcc2876fa441fa86a341f106821bf"
        }
    ],
    "synonyms": [],
    "m_Precision": 0,
    "m_PreviewExpanded": true,
    "m_PreviewMode": 0,
    "m_CustomColors": {
        "m_SerializableColors": []
    }
}

{
    "m_SGVersion": 0,
    "m_Type": "UnityEditor.ShaderGraph.DynamicValueMaterialSlot",
    "m_ObjectId": "566d35f943414a22a11c0a55b659ccb8",
    "m_Id": 0,
    "m_DisplayName": "A",
    "m_SlotType": 0,
    "m_Hidden": false,
    "m_ShaderOutputName": "A",
    "m_StageCapability": 3,
    "m_Value": {
        "e00": 0.0,
        "e01": 0.0,
        "e02": 0.0,
        "e03": 0.0,
        "e10": 0.0,
        "e11": 0.0,
        "e12": 0.0,
        "e13": 0.0,
        "e20": 0.0,
        "e21": 0.0,
        "e22": 0.0,
        "e23": 0.0,
        "e30": 0.0,
        "e31": 0.0,
        "e32": 0.0,
        "e33": 0.0
    },
    "m_DefaultValue": {
        "e00": 1.0,
        "e01": 0.0,
        "e02": 0.0,
        "e03": 0.0,
        "e10": 0.0,
        "e11": 1.0,
        "e12": 0.0,
        "e13": 0.0,
        "e20": 0.0,
        "e21": 0.0,
        "e22": 1.0,
        "e23": 0.0,
        "e30": 0.0,
        "e31": 0.0,
        "e32": 0.0,
        "e33": 1.0
    }
}

{
    "m_SGVersion": 0,
    "m_Type": "UnityEditor.ShaderGraph.Vector1MaterialSlot",
    "m_ObjectId": "577dbfb9fbdf47288b48873abbbbe929",
    "m_Id": 2,
    "m_DisplayName": "G",
    "m_SlotType": 1,
    "m_Hidden": false,
    "m_ShaderOutputName": "G",
    "m_StageCapability": 3,
    "m_Value": 0.0,
    "m_DefaultValue": 0.0,
    "m_Labels": []
}

{
    "m_SGVersion": 0,
    "m_Type": "UnityEditor.ShaderGraph.DynamicValueMaterialSlot",
    "m_ObjectId": "5e536724417940e0a7e96963abab38bf",
    "m_Id": 1,
    "m_DisplayName": "B",
    "m_SlotType": 0,
    "m_Hidden": false,
    "m_ShaderOutputName": "B",
    "m_StageCapability": 3,
    "m_Value": {
        "e00": 2.0,
        "e01": 2.0,
        "e02": 2.0,
        "e03": 2.0,
        "e10": 2.0,
        "e11": 2.0,
        "e12": 2.0,
        "e13": 2.0,
        "e20": 2.0,
        "e21": 2.0,
        "e22": 2.0,
        "e23": 2.0,
        "e30": 2.0,
        "e31": 2.0,
        "e32": 2.0,
        "e33": 2.0
    },
    "m_DefaultValue": {
        "e00": 1.0,
        "e01": 0.0,
        "e02": 0.0,
        "e03": 0.0,
        "e10": 0.0,
        "e11": 1.0,
        "e12": 0.0,
        "e13": 0.0,
        "e20": 0.0,
        "e21": 0.0,
        "e22": 1.0,
        "e23": 0.0,
        "e30": 0.0,
        "e31": 0.0,
        "e32": 0.0,
        "e33": 1.0
    }
}

{
    "m_SGVersion": 0,
    "m_Type": "UnityEditor.ShaderGraph.Vector4MaterialSlot",
    "m_ObjectId": "60ae22e3b24b4cc2a0fe3a0b5ecb2efa",
    "m_Id": 0,
    "m_DisplayName": "Base",
    "m_SlotType": 1,
    "m_Hidden": false,
    "m_ShaderOutputName": "Out",
    "m_StageCapability": 3,
    "m_Value": {
        "x": 0.0,
        "y": 0.0,
        "z": 0.0,
        "w": 0.0
    },
    "m_DefaultValue": {
        "x": 0.0,
        "y": 0.0,
        "z": 0.0,
        "w": 0.0
    },
    "m_Labels": []
}

{
    "m_SGVersion": 0,
    "m_Type": "UnityEditor.ShaderGraph.BlockNode",
    "m_ObjectId": "6b07f801e4d546089997b201aa52a976",
    "m_Group": {
        "m_Id": ""
    },
    "m_Name": "SurfaceDescription.Emission",
    "m_DrawState": {
        "m_Expanded": true,
        "m_Position": {
            "serializedVersion": "2",
            "x": 0.0,
            "y": 0.0,
            "width": 0.0,
            "height": 0.0
        }
    },
    "m_Slots": [
        {
            "m_Id": "c1b97a4e2284494fb9f9518edb16c53d"
        }
    ],
    "synonyms": [],
    "m_Precision": 0,
    "m_PreviewExpanded": true,
    "m_PreviewMode": 0,
    "m_CustomColors": {
        "m_SerializableColors": []
    },
    "m_SerializedDescriptor": "SurfaceDescription.Emission"
}

{
    "m_SGVersion": 0,
    "m_Type": "UnityEditor.ShaderGraph.DynamicValueMaterialSlot",
    "m_ObjectId": "6c998c532ccd40ada634246773877cb2",
    "m_Id": 0,
    "m_DisplayName": "A",
    "m_SlotType": 0,
    "m_Hidden": false,
    "m_ShaderOutputName": "A",
    "m_StageCapability": 3,
    "m_Value": {
        "e00": 0.0,
        "e01": 0.0,
        "e02": 0.0,
        "e03": 0.0,
        "e10": 0.0,
        "e11": 0.0,
        "e12": 0.0,
        "e13": 0.0,
        "e20": 0.0,
        "e21": 0.0,
        "e22": 0.0,
        "e23": 0.0,
        "e30": 0.0,
        "e31": 0.0,
        "e32": 0.0,
        "e33": 0.0
    },
    "m_DefaultValue": {
        "e00": 1.0,
        "e01": 0.0,
        "e02": 0.0,
        "e03": 0.0,
        "e10": 0.0,
        "e11": 1.0,
        "e12": 0.0,
        "e13": 0.0,
        "e20": 0.0,
        "e21": 0.0,
        "e22": 1.0,
        "e23": 0.0,
        "e30": 0.0,
        "e31": 0.0,
        "e32": 0.0,
        "e33": 1.0
    }
}

{
    "m_SGVersion": 0,
    "m_Type": "UnityEditor.ShaderGraph.NormalMaterialSlot",
    "m_ObjectId": "6e114d2a5aa3407b9d75441f7bd260c5",
    "m_Id": 0,
    "m_DisplayName": "Normal (Tangent Space)",
    "m_SlotType": 0,
    "m_Hidden": false,
    "m_ShaderOutputName": "NormalTS",
    "m_StageCapability": 2,
    "m_Value": {
        "x": 0.0,
        "y": 0.0,
        "z": 0.0
    },
    "m_DefaultValue": {
        "x": 0.0,
        "y": 0.0,
        "z": 0.0
    },
    "m_Labels": [],
    "m_Space": 3
}

{
    "m_SGVersion": 0,
    "m_Type": "UnityEditor.ShaderGraph.Vector1MaterialSlot",
    "m_ObjectId": "6e5acc6da1cc45468947594b5bce984e",
    "m_Id": 3,
    "m_DisplayName": "B",
    "m_SlotType": 1,
    "m_Hidden": false,
    "m_ShaderOutputName": "B",
    "m_StageCapability": 3,
    "m_Value": 0.0,
    "m_DefaultValue": 0.0,
    "m_Labels": []
}

{
    "m_SGVersion": 0,
    "m_Type": "UnityEditor.Rendering.Universal.ShaderGraph.UniversalTarget",
    "m_ObjectId": "6ed92ee056e74462beb050feed3583f5",
    "m_ActiveSubTarget": {
        "m_Id": "f50a352463034e38a8e20f8d323f9d79"
    },
    "m_SurfaceType": 0,
    "m_AlphaMode": 0,
    "m_TwoSided": false,
    "m_AlphaClip": false,
    "m_CustomEditorGUI": ""
}

{
    "m_SGVersion": 0,
    "m_Type": "UnityEditor.ShaderGraph.DynamicVectorMaterialSlot",
    "m_ObjectId": "70c44eeab37b4d70b368a05f7e42ed78",
    "m_Id": 1,
    "m_DisplayName": "B",
    "m_SlotType": 0,
    "m_Hidden": false,
    "m_ShaderOutputName": "B",
    "m_StageCapability": 3,
    "m_Value": {
        "x": 0.0,
        "y": 0.0,
        "z": 0.0,
        "w": 0.0
    },
    "m_DefaultValue": {
        "x": 0.0,
        "y": 0.0,
        "z": 0.0,
        "w": 0.0
    }
}

{
    "m_SGVersion": 0,
    "m_Type": "UnityEditor.ShaderGraph.ColorRGBMaterialSlot",
    "m_ObjectId": "711b625848ac4803a98460b86a1959ec",
    "m_Id": 0,
    "m_DisplayName": "Base Color",
    "m_SlotType": 0,
    "m_Hidden": false,
    "m_ShaderOutputName": "BaseColor",
    "m_StageCapability": 2,
    "m_Value": {
        "x": 0.5,
        "y": 0.5,
        "z": 0.5
    },
    "m_DefaultValue": {
        "x": 0.0,
        "y": 0.0,
        "z": 0.0
    },
    "m_Labels": [],
    "m_ColorMode": 0,
    "m_DefaultColor": {
        "r": 0.5,
        "g": 0.5,
        "b": 0.5,
        "a": 1.0
    }
}

{
    "m_SGVersion": 0,
    "m_Type": "UnityEditor.ShaderGraph.Vector1MaterialSlot",
    "m_ObjectId": "76b997fc88404dbcbcf13bbe699f9d54",
    "m_Id": 0,
    "m_DisplayName": "Ambient Occlusion",
    "m_SlotType": 0,
    "m_Hidden": false,
    "m_ShaderOutputName": "Occlusion",
    "m_StageCapability": 2,
    "m_Value": 1.0,
    "m_DefaultValue": 1.0,
    "m_Labels": []
}

{
    "m_SGVersion": 0,
    "m_Type": "UnityEditor.ShaderGraph.UVNode",
    "m_ObjectId": "7a66f47e23ef4b07bb46d04ac56530b5",
    "m_Group": {
        "m_Id": ""
    },
    "m_Name": "UV",
    "m_DrawState": {
        "m_Expanded": true,
        "m_Position": {
            "serializedVersion": "2",
            "x": -586.4000244140625,
            "y": -699.1998901367188,
            "width": 208.00001525878907,
            "height": 311.9999694824219
        }
    },
    "m_Slots": [
        {
            "m_Id": "145fb2d777474ef9a280431919b8c025"
        }
    ],
    "synonyms": [],
    "m_Precision": 0,
    "m_PreviewExpanded": true,
    "m_PreviewMode": 0,
    "m_CustomColors": {
        "m_SerializableColors": []
    },
    "m_OutputChannel": 0
}

{
    "m_SGVersion": 0,
    "m_Type": "UnityEditor.ShaderGraph.Vector1MaterialSlot",
    "m_ObjectId": "7b0d771a41d640c883054008bbe2f150",
    "m_Id": 0,
    "m_DisplayName": "Smoothness",
    "m_SlotType": 0,
    "m_Hidden": false,
    "m_ShaderOutputName": "Smoothness",
    "m_StageCapability": 2,
    "m_Value": 0.5,
    "m_DefaultValue": 0.5,
    "m_Labels": []
}

{
    "m_SGVersion": 0,
    "m_Type": "UnityEditor.ShaderGraph.DynamicVectorMaterialSlot",
    "m_ObjectId": "804f52a687554e8195fc33b7379ad767",
    "m_Id": 1,
    "m_DisplayName": "Out",
    "m_SlotType": 1,
    "m_Hidden": false,
    "m_ShaderOutputName": "Out",
    "m_StageCapability": 3,
    "m_Value": {
        "x": 0.0,
        "y": 0.0,
        "z": 0.0,
        "w": 0.0
    },
    "m_DefaultValue": {
        "x": 0.0,
        "y": 0.0,
        "z": 0.0,
        "w": 0.0
    }
}

{
    "m_SGVersion": 0,
    "m_Type": "UnityEditor.ShaderGraph.BlockNode",
    "m_ObjectId": "85627f6de0c9485ab673cc269dec12cb",
    "m_Group": {
        "m_Id": ""
    },
    "m_Name": "VertexDescription.Tangent",
    "m_DrawState": {
        "m_Expanded": true,
        "m_Position": {
            "serializedVersion": "2",
            "x": 0.0,
            "y": 0.0,
            "width": 0.0,
            "height": 0.0
        }
    },
    "m_Slots": [
        {
            "m_Id": "f36457d84f434dfd81af17e53466b6cb"
        }
    ],
    "synonyms": [],
    "m_Precision": 0,
    "m_PreviewExpanded": true,
    "m_PreviewMode": 0,
    "m_CustomColors": {
        "m_SerializableColors": []
    },
    "m_SerializedDescriptor": "VertexDescription.Tangent"
}

{
    "m_SGVersion": 0,
    "m_Type": "UnityEditor.ShaderGraph.NormalVectorNode",
    "m_ObjectId": "873bd5ab9b4c47c38c97b45decde9096",
    "m_Group": {
        "m_Id": ""
    },
    "m_Name": "Normal Vector",
    "m_DrawState": {
        "m_Expanded": true,
        "m_Position": {
            "serializedVersion": "2",
            "x": -586.4000244140625,
            "y": 159.20001220703126,
            "width": 208.00003051757813,
            "height": 314.39996337890627
        }
    },
    "m_Slots": [
        {
            "m_Id": "353599a595414884820da075b4554fec"
        }
    ],
    "synonyms": [],
    "m_Precision": 0,
    "m_PreviewExpanded": true,
    "m_PreviewMode": 2,
    "m_CustomColors": {
        "m_SerializableColors": []
    },
    "m_Space": 0
}

{
    "m_SGVersion": 0,
    "m_Type": "UnityEditor.ShaderGraph.DynamicValueMaterialSlot",
    "m_ObjectId": "8fca386bdcc4493893fa7ad766247b0f",
    "m_Id": 1,
    "m_DisplayName": "B",
    "m_SlotType": 0,
    "m_Hidden": false,
    "m_ShaderOutputName": "B",
    "m_StageCapability": 3,
    "m_Value": {
        "e00": 2.0,
        "e01": 2.0,
        "e02": 2.0,
        "e03": 2.0,
        "e10": 2.0,
        "e11": 2.0,
        "e12": 2.0,
        "e13": 2.0,
        "e20": 2.0,
        "e21": 2.0,
        "e22": 2.0,
        "e23": 2.0,
        "e30": 2.0,
        "e31": 2.0,
        "e32": 2.0,
        "e33": 2.0
    },
    "m_DefaultValue": {
        "e00": 1.0,
        "e01": 0.0,
        "e02": 0.0,
        "e03": 0.0,
        "e10": 0.0,
        "e11": 1.0,
        "e12": 0.0,
        "e13": 0.0,
        "e20": 0.0,
        "e21": 0.0,
        "e22": 1.0,
        "e23": 0.0,
        "e30": 0.0,
        "e31": 0.0,
        "e32": 0.0,
        "e33": 1.0
    }
}

{
    "m_SGVersion": 0,
    "m_Type": "UnityEditor.ShaderGraph.SaturateNode",
    "m_ObjectId": "96c742abf1094ef391da0b6c52012d70",
    "m_Group": {
        "m_Id": ""
    },
    "m_Name": "Saturate",
    "m_DrawState": {
        "m_Expanded": true,
        "m_Position": {
            "serializedVersion": "2",
            "x": 223.99998474121095,
            "y": -699.199951171875,
            "width": 207.99998474121095,
            "height": 277.6000061035156
        }
    },
    "m_Slots": [
        {
            "m_Id": "16a91c8b264742e99a26cb05e607bf48"
        },
        {
            "m_Id": "804f52a687554e8195fc33b7379ad767"
        }
    ],
    "synonyms": [],
    "m_Precision": 0,
    "m_PreviewExpanded": true,
    "m_PreviewMode": 0,
    "m_CustomColors": {
        "m_SerializableColors": []
    }
}

{
    "m_SGVersion": 0,
    "m_Type": "UnityEditor.ShaderGraph.NormalMaterialSlot",
    "m_ObjectId": "9efa8c79f4aa4cf58d31937906a67089",
    "m_Id": 0,
    "m_DisplayName": "Normal",
    "m_SlotType": 0,
    "m_Hidden": false,
    "m_ShaderOutputName": "Normal",
    "m_StageCapability": 1,
    "m_Value": {
        "x": 0.0,
        "y": 0.0,
        "z": 0.0
    },
    "m_DefaultValue": {
        "x": 0.0,
        "y": 0.0,
        "z": 0.0
    },
    "m_Labels": [],
    "m_Space": 0
}

{
    "m_SGVersion": 0,
    "m_Type": "UnityEditor.ShaderGraph.DynamicValueMaterialSlot",
    "m_ObjectId": "a45bcc2876fa441fa86a341f106821bf",
    "m_Id": 2,
    "m_DisplayName": "Out",
    "m_SlotType": 1,
    "m_Hidden": false,
    "m_ShaderOutputName": "Out",
    "m_StageCapability": 3,
    "m_Value": {
        "e00": 0.0,
        "e01": 0.0,
        "e02": 0.0,
        "e03": 0.0,
        "e10": 0.0,
        "e11": 0.0,
        "e12": 0.0,
        "e13": 0.0,
        "e20": 0.0,
        "e21": 0.0,
        "e22": 0.0,
        "e23": 0.0,
        "e30": 0.0,
        "e31": 0.0,
        "e32": 0.0,
        "e33": 0.0
    },
    "m_DefaultValue": {
        "e00": 1.0,
        "e01": 0.0,
        "e02": 0.0,
        "e03": 0.0,
        "e10": 0.0,
        "e11": 1.0,
        "e12": 0.0,
        "e13": 0.0,
        "e20": 0.0,
        "e21": 0.0,
        "e22": 1.0,
        "e23": 0.0,
        "e30": 0.0,
        "e31": 0.0,
        "e32": 0.0,
        "e33": 1.0
    }
}

{
    "m_SGVersion": 0,
    "m_Type": "UnityEditor.ShaderGraph.BlockNode",
    "m_ObjectId": "a5582671e235477895aaba0b5f3c623d",
    "m_Group": {
        "m_Id": ""
    },
    "m_Name": "SurfaceDescription.Smoothness",
    "m_DrawState": {
        "m_Expanded": true,
        "m_Position": {
            "serializedVersion": "2",
            "x": 0.0,
            "y": 0.0,
            "width": 0.0,
            "height": 0.0
        }
    },
    "m_Slots": [
        {
            "m_Id": "7b0d771a41d640c883054008bbe2f150"
        }
    ],
    "synonyms": [],
    "m_Precision": 0,
    "m_PreviewExpanded": true,
    "m_PreviewMode": 0,
    "m_CustomColors": {
        "m_SerializableColors": []
    },
    "m_SerializedDescriptor": "SurfaceDescription.Smoothness"
}

{
    "m_SGVersion": 3,
    "m_Type": "UnityEditor.ShaderGraph.Internal.ColorShaderProperty",
    "m_ObjectId": "a986718c5c86400e8e42d9c22a8346b2",
    "m_Guid": {
        "m_GuidSerialized": "f825a0b5-f7db-4c60-b162-71755288c58a"
    },
    "m_Name": "Border",
    "m_DefaultReferenceName": "Color_a986718c5c86400e8e42d9c22a8346b2",
    "m_OverrideReferenceName": "",
    "m_GeneratePropertyBlock": true,
    "m_Precision": 0,
    "overrideHLSLDeclaration": false,
    "hlslDeclarationOverride": 0,
    "m_Hidden": false,
    "m_Value": {
        "r": 0.37968289852142336,
        "g": 1.0,
        "b": 0.0,
        "a": 0.0
    },
    "m_ColorMode": 0
}

{
    "m_SGVersion": 0,
    "m_Type": "UnityEditor.ShaderGraph.SplitNode",
    "m_ObjectId": "a9bc5efd3fab45d098c3a115671a15fa",
    "m_Group": {
        "m_Id": ""
    },
    "m_Name": "Split",
    "m_DrawState": {
        "m_Expanded": true,
        "m_Position": {
            "serializedVersion": "2",
            "x": -342.4000244140625,
            "y": -699.199951171875,
            "width": 119.99999237060547,
            "height": 148.8000030517578
        }
    },
    "m_Slots": [
        {
            "m_Id": "35495c7f450e42a383bbd578c4f9b47c"
        },
        {
            "m_Id": "1a0033b083e7422d840366be4a58a254"
        },
        {
            "m_Id": "577dbfb9fbdf47288b48873abbbbe929"
        },
        {
            "m_Id": "6e5acc6da1cc45468947594b5bce984e"
        },
        {
            "m_Id": "b80d690544eb40f88d3637dfca4dfa8a"
        }
    ],
    "synonyms": [],
    "m_Precision": 0,
    "m_PreviewExpanded": true,
    "m_PreviewMode": 0,
    "m_CustomColors": {
        "m_SerializableColors": []
    }
}

{
    "m_SGVersion": 0,
    "m_Type": "UnityEditor.ShaderGraph.Vector1Node",
    "m_ObjectId": "aaae42fda2ef400189d07adb5ec19583",
    "m_Group": {
        "m_Id": ""
    },
    "m_Name": "Float",
    "m_DrawState": {
        "m_Expanded": true,
        "m_Position": {
            "serializedVersion": "2",
            "x": -347.1999816894531,
            "y": 66.40003967285156,
            "width": 125.60000610351563,
            "height": 76.79999542236328
        }
    },
    "m_Slots": [
        {
            "m_Id": "b43f88ea248943e08c8163e9282a0e19"
        },
        {
            "m_Id": "f74bc0fbb4114b2fb3a0ba3c756b660b"
        }
    ],
    "synonyms": [
        "Vector 1"
    ],
    "m_Precision": 0,
    "m_PreviewExpanded": true,
    "m_PreviewMode": 0,
    "m_CustomColors": {
        "m_SerializableColors": []
    },
    "m_Value": 0.0
}

{
    "m_SGVersion": 0,
    "m_Type": "UnityEditor.ShaderGraph.Vector3MaterialSlot",
    "m_ObjectId": "ac9fd369bb7247968a94de86f3f924cc",
    "m_Id": 0,
    "m_DisplayName": "Out",
    "m_SlotType": 1,
    "m_Hidden": false,
    "m_ShaderOutputName": "Out",
    "m_StageCapability": 3,
    "m_Value": {
        "x": 0.0,
        "y": 0.0,
        "z": 0.0
    },
    "m_DefaultValue": {
        "x": 0.0,
        "y": 0.0,
        "z": 0.0
    },
    "m_Labels": []
}

{
    "m_SGVersion": 1,
    "m_Type": "UnityEditor.ShaderGraph.Internal.Vector1ShaderProperty",
    "m_ObjectId": "ad9b0d4e6cc8465d858c2908c3c46bdd",
    "m_Guid": {
        "m_GuidSerialized": "3f91af54-5f52-468e-a99e-143e17c4ea14"
    },
    "m_Name": "Edge",
    "m_DefaultReferenceName": "Vector1_ad9b0d4e6cc8465d858c2908c3c46bdd",
    "m_OverrideReferenceName": "",
    "m_GeneratePropertyBlock": true,
    "m_Precision": 0,
    "overrideHLSLDeclaration": false,
    "hlslDeclarationOverride": 0,
    "m_Hidden": false,
    "m_Value": 10.0,
    "m_FloatType": 0,
    "m_RangeValues": {
        "x": 0.0,
        "y": 1.0
    }
}

{
    "m_SGVersion": 1,
    "m_Type": "UnityEditor.ShaderGraph.Internal.Vector1ShaderProperty",
    "m_ObjectId": "afad58eaac5946948d13d784d72b0821",
    "m_Guid": {
        "m_GuidSerialized": "93b6a862-0a86-4127-a789-3b9d24dbc78e"
    },
    "m_Name": "Thickness",
    "m_DefaultReferenceName": "Vector1_afad58eaac5946948d13d784d72b0821",
    "m_OverrideReferenceName": "",
    "m_GeneratePropertyBlock": true,
    "m_Precision": 0,
    "overrideHLSLDeclaration": false,
    "hlslDeclarationOverride": 0,
    "m_Hidden": false,
    "m_Value": -5.0,
    "m_FloatType": 0,
    "m_RangeValues": {
        "x": 0.0,
        "y": 1.0
    }
}

{
    "m_SGVersion": 0,
    "m_Type": "UnityEditor.ShaderGraph.MultiplyNode",
    "m_ObjectId": "b249f570571a42b49701a03d6a08dd10",
    "m_Group": {
        "m_Id": ""
    },
    "m_Name": "Multiply",
    "m_DrawState": {
        "m_Expanded": true,
        "m_Position": {
            "serializedVersion": "2",
            "x": -188.00001525878907,
            "y": 194.40003967285157,
            "width": 208.0,
            "height": 301.6000061035156
        }
    },
    "m_Slots": [
        {
            "m_Id": "ed653efb94ed4847a65014d892a1b3a2"
        },
        {
            "m_Id": "5e536724417940e0a7e96963abab38bf"
        },
        {
            "m_Id": "bd4269dee0e7441c9617e3f76d88fdde"
        }
    ],
    "synonyms": [],
    "m_Precision": 0,
    "m_PreviewExpanded": true,
    "m_PreviewMode": 0,
    "m_CustomColors": {
        "m_SerializableColors": []
    }
}

{
    "m_SGVersion": 0,
    "m_Type": "UnityEditor.ShaderGraph.Vector1MaterialSlot",
    "m_ObjectId": "b43f88ea248943e08c8163e9282a0e19",
    "m_Id": 1,
    "m_DisplayName": "X",
    "m_SlotType": 0,
    "m_Hidden": false,
    "m_ShaderOutputName": "X",
    "m_StageCapability": 3,
    "m_Value": -1.0,
    "m_DefaultValue": 0.0,
    "m_Labels": []
}

{
    "m_SGVersion": 3,
    "m_Type": "UnityEditor.ShaderGraph.Internal.ColorShaderProperty",
    "m_ObjectId": "b5fa6256b025484a92c305b0377b9617",
    "m_Guid": {
        "m_GuidSerialized": "0314b41d-4e5b-47ab-87f1-22a94f203f7e"
    },
    "m_Name": "Base",
    "m_DefaultReferenceName": "Color_b5fa6256b025484a92c305b0377b9617",
    "m_OverrideReferenceName": "",
    "m_GeneratePropertyBlock": true,
    "m_Precision": 0,
    "overrideHLSLDeclaration": false,
    "hlslDeclarationOverride": 0,
    "m_Hidden": false,
    "m_Value": {
        "r": 1.0,
        "g": 0.0,
        "b": 0.0,
        "a": 0.0
    },
    "m_ColorMode": 0
}

{
    "m_SGVersion": 0,
    "m_Type": "UnityEditor.ShaderGraph.Vector1MaterialSlot",
    "m_ObjectId": "b6950a2a33ca4eeaa842892088d489f3",
    "m_Id": 0,
    "m_DisplayName": "Edge",
    "m_SlotType": 1,
    "m_Hidden": false,
    "m_ShaderOutputName": "Out",
    "m_StageCapability": 3,
    "m_Value": 0.0,
    "m_DefaultValue": 0.0,
    "m_Labels": []
}

{
    "m_SGVersion": 1,
    "m_Type": "UnityEditor.ShaderGraph.PositionNode",
    "m_ObjectId": "b71df6e4179f41f8897cac4f10e4c61c",
    "m_Group": {
        "m_Id": ""
    },
    "m_Name": "Position",
    "m_DrawState": {
        "m_Expanded": true,
        "m_Position": {
            "serializedVersion": "2",
            "x": -586.4000244140625,
            "y": -261.5999755859375,
            "width": 208.00003051757813,
            "height": 314.4000244140625
        }
    },
    "m_Slots": [
        {
            "m_Id": "ac9fd369bb7247968a94de86f3f924cc"
        }
    ],
    "synonyms": [],
    "m_Precision": 1,
    "m_PreviewExpanded": true,
    "m_PreviewMode": 2,
    "m_CustomColors": {
        "m_SerializableColors": []
    },
    "m_Space": 0
}

{
    "m_SGVersion": 0,
    "m_Type": "UnityEditor.ShaderGraph.Vector1MaterialSlot",
    "m_ObjectId": "b80d690544eb40f88d3637dfca4dfa8a",
    "m_Id": 4,
    "m_DisplayName": "A",
    "m_SlotType": 1,
    "m_Hidden": false,
    "m_ShaderOutputName": "A",
    "m_StageCapability": 3,
    "m_Value": 0.0,
    "m_DefaultValue": 0.0,
    "m_Labels": []
}

{
    "m_SGVersion": 0,
    "m_Type": "UnityEditor.ShaderGraph.DynamicValueMaterialSlot",
    "m_ObjectId": "bd4269dee0e7441c9617e3f76d88fdde",
    "m_Id": 2,
    "m_DisplayName": "Out",
    "m_SlotType": 1,
    "m_Hidden": false,
    "m_ShaderOutputName": "Out",
    "m_StageCapability": 3,
    "m_Value": {
        "e00": 0.0,
        "e01": 0.0,
        "e02": 0.0,
        "e03": 0.0,
        "e10": 0.0,
        "e11": 0.0,
        "e12": 0.0,
        "e13": 0.0,
        "e20": 0.0,
        "e21": 0.0,
        "e22": 0.0,
        "e23": 0.0,
        "e30": 0.0,
        "e31": 0.0,
        "e32": 0.0,
        "e33": 0.0
    },
    "m_DefaultValue": {
        "e00": 1.0,
        "e01": 0.0,
        "e02": 0.0,
        "e03": 0.0,
        "e10": 0.0,
        "e11": 1.0,
        "e12": 0.0,
        "e13": 0.0,
        "e20": 0.0,
        "e21": 0.0,
        "e22": 1.0,
        "e23": 0.0,
        "e30": 0.0,
        "e31": 0.0,
        "e32": 0.0,
        "e33": 1.0
    }
}

{
    "m_SGVersion": 0,
    "m_Type": "UnityEditor.ShaderGraph.Vector1MaterialSlot",
    "m_ObjectId": "bea2d474d62144b79ba4fd81cb4bf100",
    "m_Id": 0,
    "m_DisplayName": "Thickness",
    "m_SlotType": 1,
    "m_Hidden": false,
    "m_ShaderOutputName": "Out",
    "m_StageCapability": 3,
    "m_Value": 0.0,
    "m_DefaultValue": 0.0,
    "m_Labels": []
}

{
    "m_SGVersion": 0,
    "m_Type": "UnityEditor.ShaderGraph.ColorRGBMaterialSlot",
    "m_ObjectId": "c1b97a4e2284494fb9f9518edb16c53d",
    "m_Id": 0,
    "m_DisplayName": "Emission",
    "m_SlotType": 0,
    "m_Hidden": false,
    "m_ShaderOutputName": "Emission",
    "m_StageCapability": 2,
    "m_Value": {
        "x": 0.0,
        "y": 0.0,
        "z": 0.0
    },
    "m_DefaultValue": {
        "x": 0.0,
        "y": 0.0,
        "z": 0.0
    },
    "m_Labels": [],
    "m_ColorMode": 1,
    "m_DefaultColor": {
        "r": 0.0,
        "g": 0.0,
        "b": 0.0,
        "a": 1.0
    }
}

{
    "m_SGVersion": 0,
    "m_Type": "UnityEditor.ShaderGraph.DynamicVectorMaterialSlot",
    "m_ObjectId": "cb9402d5f0ad45278b2de95517d7c75e",
    "m_Id": 1,
    "m_DisplayName": "B",
    "m_SlotType": 0,
    "m_Hidden": false,
    "m_ShaderOutputName": "B",
    "m_StageCapability": 3,
    "m_Value": {
        "x": 1.0,
        "y": 1.0,
        "z": 1.0,
        "w": 1.0
    },
    "m_DefaultValue": {
        "x": 0.0,
        "y": 0.0,
        "z": 0.0,
        "w": 0.0
    }
}

{
    "m_SGVersion": 0,
    "m_Type": "UnityEditor.ShaderGraph.Vector1MaterialSlot",
    "m_ObjectId": "d2f6603bcfa64642a98e15073261e8e0",
    "m_Id": 0,
    "m_DisplayName": "Metallic",
    "m_SlotType": 0,
    "m_Hidden": false,
    "m_ShaderOutputName": "Metallic",
    "m_StageCapability": 2,
    "m_Value": 0.0,
    "m_DefaultValue": 0.0,
    "m_Labels": []
}

{
    "m_SGVersion": 0,
    "m_Type": "UnityEditor.ShaderGraph.MultiplyNode",
    "m_ObjectId": "d83a48186dc34a92b0d04f9a9103c731",
    "m_Group": {
        "m_Id": ""
    },
    "m_Name": "Multiply",
    "m_DrawState": {
        "m_Expanded": true,
        "m_Position": {
            "serializedVersion": "2",
            "x": -123.20002746582031,
            "y": -699.199951171875,
            "width": 125.59999084472656,
            "height": 117.60002899169922
        }
    },
    "m_Slots": [
        {
            "m_Id": "6c998c532ccd40ada634246773877cb2"
        },
        {
            "m_Id": "8fca386bdcc4493893fa7ad766247b0f"
        },
        {
            "m_Id": "fc769ea5ab154808804877df12c15404"
        }
    ],
    "synonyms": [],
    "m_Precision": 0,
    "m_PreviewExpanded": false,
    "m_PreviewMode": 0,
    "m_CustomColors": {
        "m_SerializableColors": []
    }
}

{
    "m_SGVersion": 0,
    "m_Type": "UnityEditor.ShaderGraph.PropertyNode",
    "m_ObjectId": "d8fa51be4122436090b3ed89a240ee25",
    "m_Group": {
        "m_Id": ""
    },
    "m_Name": "Property",
    "m_DrawState": {
        "m_Expanded": true,
        "m_Position": {
            "serializedVersion": "2",
            "x": 403.4781188964844,
            "y": -811.3814086914063,
            "width": 0.0,
            "height": 0.0
        }
    },
    "m_Slots": [
        {
            "m_Id": "014b4ec6c980442a8918712667a7f2fb"
        }
    ],
    "synonyms": [],
    "m_Precision": 0,
    "m_PreviewExpanded": true,
    "m_PreviewMode": 0,
    "m_CustomColors": {
        "m_SerializableColors": []
    },
    "m_Property": {
        "m_Id": "a986718c5c86400e8e42d9c22a8346b2"
    }
}

{
    "m_SGVersion": 0,
    "m_Type": "UnityEditor.ShaderGraph.BlockNode",
    "m_ObjectId": "daa33396f3954bd384a7fe30101371ac",
    "m_Group": {
        "m_Id": ""
    },
    "m_Name": "VertexDescription.Position",
    "m_DrawState": {
        "m_Expanded": true,
        "m_Position": {
            "serializedVersion": "2",
            "x": 0.0,
            "y": 0.0,
            "width": 0.0,
            "height": 0.0
        }
    },
    "m_Slots": [
        {
            "m_Id": "4e0fe967791940b487aab862e10f9bdd"
        }
    ],
    "synonyms": [],
    "m_Precision": 0,
    "m_PreviewExpanded": true,
    "m_PreviewMode": 0,
    "m_CustomColors": {
        "m_SerializableColors": []
    },
    "m_SerializedDescriptor": "VertexDescription.Position"
}

{
    "m_SGVersion": 0,
    "m_Type": "UnityEditor.ShaderGraph.DynamicValueMaterialSlot",
    "m_ObjectId": "e33abadcfaee40669c6d21762fcfc4cb",
    "m_Id": 1,
    "m_DisplayName": "B",
    "m_SlotType": 0,
    "m_Hidden": false,
    "m_ShaderOutputName": "B",
    "m_StageCapability": 3,
    "m_Value": {
        "e00": 2.0,
        "e01": 2.0,
        "e02": 2.0,
        "e03": 2.0,
        "e10": 2.0,
        "e11": 2.0,
        "e12": 2.0,
        "e13": 2.0,
        "e20": 2.0,
        "e21": 2.0,
        "e22": 2.0,
        "e23": 2.0,
        "e30": 2.0,
        "e31": 2.0,
        "e32": 2.0,
        "e33": 2.0
    },
    "m_DefaultValue": {
        "e00": 1.0,
        "e01": 0.0,
        "e02": 0.0,
        "e03": 0.0,
        "e10": 0.0,
        "e11": 1.0,
        "e12": 0.0,
        "e13": 0.0,
        "e20": 0.0,
        "e21": 0.0,
        "e22": 1.0,
        "e23": 0.0,
        "e30": 0.0,
        "e31": 0.0,
        "e32": 0.0,
        "e33": 1.0
    }
}

{
    "m_SGVersion": 0,
    "m_Type": "UnityEditor.ShaderGraph.BlockNode",
    "m_ObjectId": "e80770faf36b44628ee5d0cd8f565df5",
    "m_Group": {
        "m_Id": ""
    },
    "m_Name": "SurfaceDescription.NormalTS",
    "m_DrawState": {
        "m_Expanded": true,
        "m_Position": {
            "serializedVersion": "2",
            "x": 0.0,
            "y": 0.0,
            "width": 0.0,
            "height": 0.0
        }
    },
    "m_Slots": [
        {
            "m_Id": "6e114d2a5aa3407b9d75441f7bd260c5"
        }
    ],
    "synonyms": [],
    "m_Precision": 0,
    "m_PreviewExpanded": true,
    "m_PreviewMode": 0,
    "m_CustomColors": {
        "m_SerializableColors": []
    },
    "m_SerializedDescriptor": "SurfaceDescription.NormalTS"
}

{
    "m_SGVersion": 0,
    "m_Type": "UnityEditor.ShaderGraph.DynamicValueMaterialSlot",
    "m_ObjectId": "ed653efb94ed4847a65014d892a1b3a2",
    "m_Id": 0,
    "m_DisplayName": "A",
    "m_SlotType": 0,
    "m_Hidden": false,
    "m_ShaderOutputName": "A",
    "m_StageCapability": 3,
    "m_Value": {
        "e00": 0.0,
        "e01": 0.0,
        "e02": 0.0,
        "e03": 0.0,
        "e10": 0.0,
        "e11": 0.0,
        "e12": 0.0,
        "e13": 0.0,
        "e20": 0.0,
        "e21": 0.0,
        "e22": 0.0,
        "e23": 0.0,
        "e30": 0.0,
        "e31": 0.0,
        "e32": 0.0,
        "e33": 0.0
    },
    "m_DefaultValue": {
        "e00": 1.0,
        "e01": 0.0,
        "e02": 0.0,
        "e03": 0.0,
        "e10": 0.0,
        "e11": 1.0,
        "e12": 0.0,
        "e13": 0.0,
        "e20": 0.0,
        "e21": 0.0,
        "e22": 1.0,
        "e23": 0.0,
        "e30": 0.0,
        "e31": 0.0,
        "e32": 0.0,
        "e33": 1.0
    }
}

{
    "m_SGVersion": 0,
    "m_Type": "UnityEditor.ShaderGraph.DynamicVectorMaterialSlot",
    "m_ObjectId": "ee547febc27b4fe187bcf21db8d8df85",
    "m_Id": 2,
    "m_DisplayName": "Out",
    "m_SlotType": 1,
    "m_Hidden": false,
    "m_ShaderOutputName": "Out",
    "m_StageCapability": 3,
    "m_Value": {
        "x": 0.0,
        "y": 0.0,
        "z": 0.0,
        "w": 0.0
    },
    "m_DefaultValue": {
        "x": 0.0,
        "y": 0.0,
        "z": 0.0,
        "w": 0.0
    }
}

{
    "m_SGVersion": 0,
    "m_Type": "UnityEditor.ShaderGraph.DynamicVectorMaterialSlot",
    "m_ObjectId": "ee556696339d4a19bcddcc5f8fe85b2e",
    "m_Id": 2,
    "m_DisplayName": "T",
    "m_SlotType": 0,
    "m_Hidden": false,
    "m_ShaderOutputName": "T",
    "m_StageCapability": 3,
    "m_Value": {
        "x": 0.0,
        "y": 0.0,
        "z": 0.0,
        "w": 0.0
    },
    "m_DefaultValue": {
        "x": 0.0,
        "y": 0.0,
        "z": 0.0,
        "w": 0.0
    }
}

{
    "m_SGVersion": 0,
    "m_Type": "UnityEditor.ShaderGraph.TangentMaterialSlot",
    "m_ObjectId": "f36457d84f434dfd81af17e53466b6cb",
    "m_Id": 0,
    "m_DisplayName": "Tangent",
    "m_SlotType": 0,
    "m_Hidden": false,
    "m_ShaderOutputName": "Tangent",
    "m_StageCapability": 1,
    "m_Value": {
        "x": 0.0,
        "y": 0.0,
        "z": 0.0
    },
    "m_DefaultValue": {
        "x": 0.0,
        "y": 0.0,
        "z": 0.0
    },
    "m_Labels": [],
    "m_Space": 0
}

{
    "m_SGVersion": 0,
    "m_Type": "UnityEditor.ShaderGraph.DynamicVectorMaterialSlot",
    "m_ObjectId": "f4328d47923745ec9a58ef451ca73536",
    "m_Id": 3,
    "m_DisplayName": "Out",
    "m_SlotType": 1,
    "m_Hidden": false,
    "m_ShaderOutputName": "Out",
    "m_StageCapability": 3,
    "m_Value": {
        "x": 0.0,
        "y": 0.0,
        "z": 0.0,
        "w": 0.0
    },
    "m_DefaultValue": {
        "x": 0.0,
        "y": 0.0,
        "z": 0.0,
        "w": 0.0
    }
}

{
    "m_SGVersion": 0,
    "m_Type": "UnityEditor.Rendering.Universal.ShaderGraph.UniversalLitSubTarget",
    "m_ObjectId": "f50a352463034e38a8e20f8d323f9d79",
    "m_WorkflowMode": 1,
    "m_NormalDropOffSpace": 0,
    "m_ClearCoat": false
}

{
    "m_SGVersion": 0,
    "m_Type": "UnityEditor.ShaderGraph.Vector1MaterialSlot",
    "m_ObjectId": "f74bc0fbb4114b2fb3a0ba3c756b660b",
    "m_Id": 0,
    "m_DisplayName": "Out",
    "m_SlotType": 1,
    "m_Hidden": false,
    "m_ShaderOutputName": "Out",
    "m_StageCapability": 3,
    "m_Value": 0.0,
    "m_DefaultValue": 0.0,
    "m_Labels": []
}

{
    "m_SGVersion": 0,
    "m_Type": "UnityEditor.ShaderGraph.DynamicVectorMaterialSlot",
    "m_ObjectId": "f83373046c484dbf8264032ff3feb329",
    "m_Id": 0,
    "m_DisplayName": "A",
    "m_SlotType": 0,
    "m_Hidden": false,
    "m_ShaderOutputName": "A",
    "m_StageCapability": 3,
    "m_Value": {
        "x": 0.0,
        "y": 0.0,
        "z": 0.0,
        "w": 0.0
    },
    "m_DefaultValue": {
        "x": 0.0,
        "y": 0.0,
        "z": 0.0,
        "w": 0.0
    }
}

{
    "m_SGVersion": 0,
    "m_Type": "UnityEditor.ShaderGraph.DynamicValueMaterialSlot",
    "m_ObjectId": "fc769ea5ab154808804877df12c15404",
    "m_Id": 2,
    "m_DisplayName": "Out",
    "m_SlotType": 1,
    "m_Hidden": false,
    "m_ShaderOutputName": "Out",
    "m_StageCapability": 3,
    "m_Value": {
        "e00": 0.0,
        "e01": 0.0,
        "e02": 0.0,
        "e03": 0.0,
        "e10": 0.0,
        "e11": 0.0,
        "e12": 0.0,
        "e13": 0.0,
        "e20": 0.0,
        "e21": 0.0,
        "e22": 0.0,
        "e23": 0.0,
        "e30": 0.0,
        "e31": 0.0,
        "e32": 0.0,
        "e33": 0.0
    },
    "m_DefaultValue": {
        "e00": 1.0,
        "e01": 0.0,
        "e02": 0.0,
        "e03": 0.0,
        "e10": 0.0,
        "e11": 1.0,
        "e12": 0.0,
        "e13": 0.0,
        "e20": 0.0,
        "e21": 0.0,
        "e22": 1.0,
        "e23": 0.0,
        "e30": 0.0,
        "e31": 0.0,
        "e32": 0.0,
        "e33": 1.0
    }
}

