%YAML 1.1
%TAG !u! tag:unity3d.com,2011:
--- !u!1 &8384986285758177465
GameObject:
  m_ObjectHideFlags: 0
  m_CorrespondingSourceObject: {fileID: 0}
  m_PrefabInstance: {fileID: 0}
  m_PrefabAsset: {fileID: 0}
  serializedVersion: 6
  m_Component:
  - component: {fileID: 8680475222470238354}
  - component: {fileID: 271134985667278553}
  - component: {fileID: 2551763857642413983}
  - component: {fileID: 3206223120146537725}
  m_Layer: 31
  m_Name: PlayerUICanvas
  m_TagString: Untagged
  m_Icon: {fileID: 0}
  m_NavMeshLayer: 0
  m_StaticEditorFlags: 0
  m_IsActive: 1
--- !u!224 &8680475222470238354
RectTransform:
  m_ObjectHideFlags: 0
  m_CorrespondingSourceObject: {fileID: 0}
  m_PrefabInstance: {fileID: 0}
  m_PrefabAsset: {fileID: 0}
  m_GameObject: {fileID: 8384986285758177465}
  m_LocalRotation: {x: -0, y: -0, z: -0, w: 1}
  m_LocalPosition: {x: 0, y: 0, z: -98.01259}
  m_LocalScale: {x: 0.5031447, y: 0.5031447, z: 0.5031447}
  m_Children:
  - {fileID: 4743497561349998477}
  m_Father: {fileID: 0}
  m_RootOrder: 0
  m_LocalEulerAnglesHint: {x: 0, y: 0, z: 0}
  m_AnchorMin: {x: 0, y: 0}
  m_AnchorMax: {x: 0, y: 0}
  m_AnchoredPosition: {x: 65.308174, y: 120.21133}
  m_SizeDelta: {x: 800, y: 480}
  m_Pivot: {x: 0.5, y: 0.5}
--- !u!223 &271134985667278553
Canvas:
  m_ObjectHideFlags: 0
  m_CorrespondingSourceObject: {fileID: 0}
  m_PrefabInstance: {fileID: 0}
  m_PrefabAsset: {fileID: 0}
  m_GameObject: {fileID: 8384986285758177465}
  m_Enabled: 1
  serializedVersion: 3
  m_RenderMode: 2
  m_Camera: {fileID: 0}
  m_PlaneDistance: 100
  m_PixelPerfect: 0
  m_ReceivesEvents: 1
  m_OverrideSorting: 0
  m_OverridePixelPerfect: 0
  m_SortingBucketNormalizedSize: 0
  m_AdditionalShaderChannelsFlag: 0
  m_SortingLayerID: 0
  m_SortingOrder: 0
  m_TargetDisplay: 0
--- !u!114 &2551763857642413983
MonoBehaviour:
  m_ObjectHideFlags: 0
  m_CorrespondingSourceObject: {fileID: 0}
  m_PrefabInstance: {fileID: 0}
  m_PrefabAsset: {fileID: 0}
  m_GameObject: {fileID: 8384986285758177465}
  m_Enabled: 1
  m_EditorHideFlags: 0
  m_Script: {fileID: 11500000, guid: 0cd44c1031e13a943bb63640046fad76, type: 3}
  m_Name: 
  m_EditorClassIdentifier: 
  m_UiScaleMode: 0
  m_ReferencePixelsPerUnit: 100
  m_ScaleFactor: 1
  m_ReferenceResolution: {x: 800, y: 600}
  m_ScreenMatchMode: 0
  m_MatchWidthOrHeight: 0
  m_PhysicalUnit: 3
  m_FallbackScreenDPI: 96
  m_DefaultSpriteDPI: 96
  m_DynamicPixelsPerUnit: 1
--- !u!114 &3206223120146537725
MonoBehaviour:
  m_ObjectHideFlags: 0
  m_CorrespondingSourceObject: {fileID: 0}
  m_PrefabInstance: {fileID: 0}
  m_PrefabAsset: {fileID: 0}
  m_GameObject: {fileID: 8384986285758177465}
  m_Enabled: 1
  m_EditorHideFlags: 0
  m_Script: {fileID: 11500000, guid: dc42784cf147c0c48a680349fa168899, type: 3}
  m_Name: 
  m_EditorClassIdentifier: 
  m_IgnoreReversedGraphics: 1
  m_BlockingObjects: 0
  m_BlockingMask:
    serializedVersion: 2
    m_Bits: 4294967295
--- !u!1001 &2894049321425762862
PrefabInstance:
  m_ObjectHideFlags: 0
  serializedVersion: 2
  m_Modification:
    m_TransformParent: {fileID: 8680475222470238354}
    m_Modifications:
    - target: {fileID: 7637528137390636451, guid: 29fc86df28b560f478d6ebd1d0884ced, type: 3}
      propertyPath: m_LocalPosition.x
      value: 0
      objectReference: {fileID: 0}
    - target: {fileID: 7637528137390636451, guid: 29fc86df28b560f478d6ebd1d0884ced, type: 3}
      propertyPath: m_LocalPosition.y
      value: 0
      objectReference: {fileID: 0}
    - target: {fileID: 7637528137390636451, guid: 29fc86df28b560f478d6ebd1d0884ced, type: 3}
      propertyPath: m_LocalPosition.z
      value: 195.22
      objectReference: {fileID: 0}
    - target: {fileID: 7637528137390636451, guid: 29fc86df28b560f478d6ebd1d0884ced, type: 3}
      propertyPath: m_LocalRotation.x
      value: 0
      objectReference: {fileID: 0}
    - target: {fileID: 7637528137390636451, guid: 29fc86df28b560f478d6ebd1d0884ced, type: 3}
      propertyPath: m_LocalRotation.y
      value: 0.64702934
      objectReference: {fileID: 0}
    - target: {fileID: 7637528137390636451, guid: 29fc86df28b560f478d6ebd1d0884ced, type: 3}
      propertyPath: m_LocalRotation.z
      value: 0
      objectReference: {fileID: 0}
    - target: {fileID: 7637528137390636451, guid: 29fc86df28b560f478d6ebd1d0884ced, type: 3}
      propertyPath: m_LocalRotation.w
      value: 0.7624651
      objectReference: {fileID: 0}
    - target: {fileID: 7637528137390636451, guid: 29fc86df28b560f478d6ebd1d0884ced, type: 3}
      propertyPath: m_RootOrder
      value: 0
      objectReference: {fileID: 0}
    - target: {fileID: 7637528137390636451, guid: 29fc86df28b560f478d6ebd1d0884ced, type: 3}
      propertyPath: m_LocalEulerAnglesHint.x
      value: 0
      objectReference: {fileID: 0}
    - target: {fileID: 7637528137390636451, guid: 29fc86df28b560f478d6ebd1d0884ced, type: 3}
      propertyPath: m_LocalEulerAnglesHint.y
      value: 80.636
      objectReference: {fileID: 0}
    - target: {fileID: 7637528137390636451, guid: 29fc86df28b560f478d6ebd1d0884ced, type: 3}
      propertyPath: m_LocalEulerAnglesHint.z
      value: 0
      objectReference: {fileID: 0}
    - target: {fileID: 7637528137390636451, guid: 29fc86df28b560f478d6ebd1d0884ced, type: 3}
      propertyPath: m_AnchoredPosition.x
      value: -129.8
      objectReference: {fileID: 0}
    - target: {fileID: 7637528137390636451, guid: 29fc86df28b560f478d6ebd1d0884ced, type: 3}
      propertyPath: m_AnchoredPosition.y
      value: -236.51
      objectReference: {fileID: 0}
    - target: {fileID: 7637528137390636451, guid: 29fc86df28b560f478d6ebd1d0884ced, type: 3}
      propertyPath: m_SizeDelta.x
      value: 1.46
      objectReference: {fileID: 0}
    - target: {fileID: 7637528137390636451, guid: 29fc86df28b560f478d6ebd1d0884ced, type: 3}
      propertyPath: m_SizeDelta.y
      value: 0.17
      objectReference: {fileID: 0}
    - target: {fileID: 7637528137390636451, guid: 29fc86df28b560f478d6ebd1d0884ced, type: 3}
      propertyPath: m_AnchorMin.x
      value: 0.5
      objectReference: {fileID: 0}
    - target: {fileID: 7637528137390636451, guid: 29fc86df28b560f478d6ebd1d0884ced, type: 3}
      propertyPath: m_AnchorMin.y
      value: 0.5
      objectReference: {fileID: 0}
    - target: {fileID: 7637528137390636451, guid: 29fc86df28b560f478d6ebd1d0884ced, type: 3}
      propertyPath: m_AnchorMax.x
      value: 0.5
      objectReference: {fileID: 0}
    - target: {fileID: 7637528137390636451, guid: 29fc86df28b560f478d6ebd1d0884ced, type: 3}
      propertyPath: m_AnchorMax.y
      value: 0.5
      objectReference: {fileID: 0}
    - target: {fileID: 7637528137390636451, guid: 29fc86df28b560f478d6ebd1d0884ced, type: 3}
      propertyPath: m_Pivot.x
      value: 0.5
      objectReference: {fileID: 0}
    - target: {fileID: 7637528137390636451, guid: 29fc86df28b560f478d6ebd1d0884ced, type: 3}
      propertyPath: m_Pivot.y
      value: 0.5
      objectReference: {fileID: 0}
    - target: {fileID: 8317068711355822669, guid: 29fc86df28b560f478d6ebd1d0884ced, type: 3}
      propertyPath: m_Name
      value: Hud
      objectReference: {fileID: 0}
    m_RemovedComponents: []
  m_SourcePrefab: {fileID: 100100000, guid: 29fc86df28b560f478d6ebd1d0884ced, type: 3}
--- !u!224 &4743497561349998477 stripped
RectTransform:
  m_CorrespondingSourceObject: {fileID: 7637528137390636451, guid: 29fc86df28b560f478d6ebd1d0884ced, type: 3}
  m_PrefabInstance: {fileID: 2894049321425762862}
  m_PrefabAsset: {fileID: 0}
